{
    "Hanamura": {
        "types": [
            "Dive"
        ]
    },
    "Temple": {
        "types": [
            "Dive"
        ]
    },
    "Blizzard World": {
        "types": [
            "Rush",
            "Dive"
        ]
    },
    "Busan": {
        "types": [
            "Dive",
            "Rush",
            "Poke"
        ]
    },
    "Ilios": {
        "types": [
            "Dive"
        ]
    },
    "Lijiang Tower": {
        "types": [
            "Poke",
            "Dive",
            "Rush"
        ]
    },
    "Nepal": {
        "types": [
            "Poke",
            "Rush",
            "Dive"
        ]
    },
    "Oasis": {
        "types": [
            "Rush"
        ]
    },
    "Antarctica Peninsula": {
        "types": [
            "Poke"
        ]
    },
    "Circuit Royal": {
        "types": [
            "Poke"
        ]
    },
    "Dorado": {
        "types": [
            "Dive"
        ]
    },
    "Havana": {
        "types": [
            "Poke"
        ]
    },
    "Junkertown": {
        "types": [
            "Poke"
        ]
    },
    "Rialto": {
        "types": [
            "Rush"
        ]
    },
    "Route 66": {
        "types": [
            "Rush"
        ]
    },
    "Shambali Monastery": {
        "types": [
            "Rush"
        ]
    },
    "Watchpoint: Gibraltar": {
        "types": [
            "Dive"
        ]
    },
    "Eichenwalde": {
        "types": [
            "Dive"
        ]
    },
    "Hollywood": {
        "types": [
            "Dive"
        ]
    },
    "King’s Row": {
        "types": [
            "Rush"
        ]
    },
    "Midtown": {
        "types": [
            "Rush"
        ]
    },
    "Numbani": {
        "types": [
            "Dive"
        ]
    },
    "Paraiso": {
        "types": [
            "Dive"
        ]
    },
    "Colosseo": {
        "types": [
            "Rush",
            "Dive"
        ]
    },
    "Esperanca": {
        "types": [
            "Dive",
            "Rush"
        ]
    },
    "New Queen Street": {
        "types": [
            "Dive"
        ]
    }
}